<?xml version="1.0" encoding="UTF-8" standalone="no"?>
<!-- Created with Inkscape (http://www.inkscape.org/) -->
<svg
   xmlns:dc="http://purl.org/dc/elements/1.1/"
   xmlns:cc="http://web.resource.org/cc/"
   xmlns:rdf="http://www.w3.org/1999/02/22-rdf-syntax-ns#"
   xmlns:svg="http://www.w3.org/2000/svg"
   xmlns="http://www.w3.org/2000/svg"
   xmlns:xlink="http://www.w3.org/1999/xlink"
   xmlns:sodipodi="http://sodipodi.sourceforge.net/DTD/sodipodi-0.dtd"
   xmlns:inkscape="http://www.inkscape.org/namespaces/inkscape"
   width="300"
   height="200"
   id="svg2"
   sodipodi:version="0.32"
   inkscape:version="0.45"
   version="1.0"
   sodipodi:docname="telega.svg"
   sodipodi:docbase="/var/www/KoR/images"
   inkscape:output_extension="org.inkscape.output.svg.inkscape"
   sodipodi:modified="true">
  <defs
     id="defs4">
    <linearGradient
       inkscape:collect="always"
       id="linearGradient2169">
      <stop
         style="stop-color:#4d4d4d;stop-opacity:1"
         offset="0"
         id="stop2171" />
      <stop
         style="stop-color:#4d4d4d;stop-opacity:0"
         offset="1"
         id="stop2173" />
    </linearGradient>
    <linearGradient
       inkscape:collect="always"
       xlink:href="#linearGradient2169"
       id="linearGradient2180"
       gradientUnits="userSpaceOnUse"
       x1="30.714285"
       y1="115"
       x2="246.42857"
       y2="120.71429"
       gradientTransform="matrix(1.3008207,0,0,1.3687858,-31.365786,-41.673729)" />
  </defs>
  <sodipodi:namedview
     id="base"
     pagecolor="#ffffff"
     bordercolor="#666666"
     borderopacity="1.0"
     gridtolerance="10000"
     guidetolerance="10"
     objecttolerance="10"
     inkscape:pageopacity="0.0"
     inkscape:pageshadow="2"
     inkscape:zoom="1.4"
     inkscape:cx="97.985724"
     inkscape:cy="102.27561"
     inkscape:document-units="px"
     inkscape:current-layer="layer1"
     width="300px"
     height="200px"
     inkscape:window-width="1024"
     inkscape:window-height="652"
     inkscape:window-x="0"
     inkscape:window-y="30" />
  <metadata
     id="metadata7">
    <rdf:RDF>
      <cc:Work
         rdf:about="">
        <dc:format>image/svg+xml</dc:format>
        <dc:type
           rdf:resource="http://purl.org/dc/dcmitype/StillImage" />
      </cc:Work>
    </rdf:RDF>
  </metadata>
  <g
     inkscape:label="Layer 1"
     inkscape:groupmode="layer"
     id="layer1">
    <path
       style="fill:url(#linearGradient2180);fill-opacity:1;fill-rule:evenodd;stroke:#000000;stroke-width:1.60018361px;stroke-linecap:butt;stroke-linejoin:miter;stroke-opacity:1"
       d="M 6.8560075,169.9222 L 292.78795,171.32944 L 301.14309,119.26112 L 290.0029,91.116128 L 168.389,2.459291 L 12.426122,6.6810426 L 10.569421,27.789814 L 3.1426067,130.51916 L 6.8560075,169.9222 z "
       id="path2160" />
    <path
       id="path2162"
       d="M 23.021179,152.72755 L 275.31059,153.85994 L 282.68268,111.96157 L 272.85324,89.313831 L 165.54831,17.97339 L 27.93591,21.370551 L 26.297664,38.356371 L 19.744692,121.02069 L 23.021179,152.72755 z "
       style="fill:#ffffff;fill-opacity:0;fill-rule:evenodd;stroke:#000000;stroke-width:1.34834123px;stroke-linecap:butt;stroke-linejoin:miter;stroke-opacity:1" />
    <path
       style="fill:#b3b3b3;fill-rule:evenodd;stroke:#000000;stroke-width:1.33437061px;stroke-linecap:butt;stroke-linejoin:miter;stroke-opacity:1"
       d="M 118.22859,16.98852 L 107.0787,151.91169 L 126.59101,153.8671 C 135.18851,125.7903 132.01715,63.354663 134.02428,16.98852 L 118.22859,16.98852 z "
       id="path2164"
       sodipodi:nodetypes="ccccc" />
    <path
       style="fill:#b3b3b3;fill-rule:evenodd;stroke:#000000;stroke-width:1.33437061px;stroke-linecap:butt;stroke-linejoin:miter;stroke-opacity:1"
       d="M 19.737884,104.9819 L 282.6895,107.915 L 279.90202,124.53597 L 17.879569,121.60286 L 19.737884,104.9819 z "
       id="path2166" />
    <path
       sodipodi:type="arc"
       style="fill:#4d4d4d;stroke:#4d4d4d"
       id="path2189"
       sodipodi:cx="80.35714"
       sodipodi:cy="154.64285"
       sodipodi:rx="21.785715"
       sodipodi:ry="21.785715"
       d="M 102.14285 154.64285 A 21.785715 21.785715 0 1 1  58.571424,154.64285 A 21.785715 21.785715 0 1 1  102.14285 154.64285 z"
       transform="matrix(1.3008207,0,0,1.3687858,-31.365786,-41.673729)" />
    <path
       sodipodi:type="arc"
       style="fill:#808080;stroke:#4d4d4d"
       id="path2191"
       sodipodi:cx="81.071426"
       sodipodi:cy="155.71428"
       sodipodi:rx="9.6428576"
       sodipodi:ry="10.714286"
       d="M 90.714284 155.71428 A 9.6428576 10.714286 0 1 1  71.428569,155.71428 A 9.6428576 10.714286 0 1 1  90.714284 155.71428 z"
       transform="matrix(1.3041197,0,0,1.2350315,-31.633243,-22.312827)" />
    <path
       sodipodi:type="arc"
       style="fill:#4d4d4d;fill-opacity:1;stroke:#4d4d4d"
       id="path2193"
       sodipodi:cx="208.21428"
       sodipodi:cy="153.21428"
       sodipodi:rx="21.071428"
       sodipodi:ry="21.071428"
       d="M 229.28571 153.21428 A 21.071428 21.071428 0 1 1  187.14285,153.21428 A 21.071428 21.071428 0 1 1  229.28571 153.21428 z"
       transform="matrix(1.3008207,0,0,1.3687858,-31.365786,-41.673729)" />
    <path
       sodipodi:type="arc"
       style="fill:#999999;fill-opacity:1;stroke:#4d4d4d"
       id="path2195"
       sodipodi:cx="207.85715"
       sodipodi:cy="152.85715"
       sodipodi:rx="8.5714283"
       sodipodi:ry="8.5714283"
       d="M 216.42858 152.85715 A 8.5714283 8.5714283 0 1 1  199.28572,152.85715 A 8.5714283 8.5714283 0 1 1  216.42858 152.85715 z"
       transform="matrix(1.3008207,0,0,1.3687858,-31.365786,-41.673729)" />
    <text
       xml:space="preserve"
       style="font-size:72px;font-style:normal;font-weight:normal;fill:#000000;fill-opacity:1;stroke:none;stroke-width:1px;stroke-linecap:butt;stroke-linejoin:miter;stroke-opacity:1;font-family:FreeSans"
       x="157.85713"
       y="97.857147"
       id="text2223"><tspan
         sodipodi:role="line"
         id="tspan2225"
         x="157.85713"
         y="97.857147">?</tspan></text>
  </g>
</svg>
